{
  "name": "handlebars",
  "version": "1.0.0-rc.3",
  "main": [
    "handlebars.js",
    "handlebars.runtime.js"
  ],
  "dependencies": {},
  "_id": "handlebars.js@1.0.0-rc.3",
  "readme": "ERROR: No README.md file found!",
  "description": "ERROR: No README.md file found!",
  "repository": {
    "type": "git",
    "url": "git://github.com/components/handlebars.js"
  }
}